<svg xmlns="http://www.w3.org/2000/svg" xmlns:xlink="http://www.w3.org/1999/xlink" width="319.01" height="108.172" viewBox="0 0 319.01 108.172">
  <defs>
    <clipPath id="clip-path">
      <rect id="Rectangle_174" data-name="Rectangle 174" width="70.19" height="45.916" rx="8.993" transform="translate(148.529 -195.936)" fill="none"/>
    </clipPath>
    <radialGradient id="radial-gradient" cx="32.963" cy="344.796" r="163.287" gradientTransform="matrix(0.558, 0, 0, -0.312, -47.001, 704.479)" gradientUnits="userSpaceOnUse">
      <stop offset="0" stop-color="#89cbf1"/>
      <stop offset="0.071" stop-color="#83c9f0"/>
      <stop offset="0.157" stop-color="#73c4ef"/>
      <stop offset="0.252" stop-color="#56bbed"/>
      <stop offset="0.351" stop-color="#35b0e6"/>
      <stop offset="0.455" stop-color="#009fdf"/>
      <stop offset="0.5" stop-color="#0097d9"/>
      <stop offset="1" stop-color="#0066b0"/>
    </radialGradient>
    <linearGradient id="linear-gradient" y1="0.5" x2="1" y2="0.5" gradientUnits="objectBoundingBox">
      <stop offset="0" stop-color="#182966"/>
      <stop offset="1" stop-color="#0066b2"/>
    </linearGradient>
    <linearGradient id="linear-gradient-2" x1="0.031" y1="0.5" x2="0.959" y2="0.5" xlink:href="#linear-gradient"/>
    <linearGradient id="linear-gradient-3" y1="0.5" x2="1" y2="0.5" gradientUnits="objectBoundingBox">
      <stop offset="0" stop-color="#62232a"/>
      <stop offset="1" stop-color="#e50036"/>
    </linearGradient>
    <linearGradient id="linear-gradient-4" y1="0.5" x2="1" y2="0.5" gradientUnits="objectBoundingBox">
      <stop offset="0" stop-color="#1f7037"/>
      <stop offset="1" stop-color="#64af31"/>
    </linearGradient>
    <linearGradient id="linear-gradient-5" x1="0" y1="0.5" x2="1" y2="0.5" xlink:href="#linear-gradient-4"/>
    <linearGradient id="linear-gradient-6" x1="0" y1="0.5" x2="1" y2="0.5" xlink:href="#linear-gradient-4"/>
  </defs>
  <g id="Group_366" data-name="Group 366" transform="translate(-146.071 257.692)">
    <rect id="Rectangle_167" data-name="Rectangle 167" width="88.114" height="45.916" rx="8.993" transform="translate(146.071 -257.192)" fill="#004790"/>
    <rect id="Rectangle_168" data-name="Rectangle 168" width="88.114" height="45.916" rx="8.993" transform="translate(293.822 -257.192)" fill="#fff" stroke="#d6d5d5" stroke-miterlimit="10" stroke-width="1"/>
    <rect id="Rectangle_169" data-name="Rectangle 169" width="133.525" height="45.916" rx="8.993" transform="translate(146.071 -257.192)" fill="#004790"/>
    <g id="Group_357" data-name="Group 357">
      <path id="Path_176" data-name="Path 176" d="M326.395-224.338l3.541-18.981H335.6l-3.543,18.981Z" fill="#004790"/>
      <path id="Path_177" data-name="Path 177" d="M352.593-242.851a15.852,15.852,0,0,0-5.075-.8c-5.6,0-9.537,2.574-9.57,6.263-.032,2.728,2.813,4.249,4.961,5.157,2.2.93,2.946,1.524,2.935,2.354-.014,1.273-1.76,1.854-3.388,1.854a12.846,12.846,0,0,1-5.33-1l-.73-.3-.794,4.249a19.433,19.433,0,0,0,6.307,1.013c5.953,0,9.817-2.545,9.861-6.485.021-2.159-1.487-3.8-4.754-5.157-1.98-.878-3.192-1.464-3.179-2.353,0-.789,1.026-1.633,3.243-1.633a11.323,11.323,0,0,1,4.238.727l.508.22.767-4.114" fill="#004790"/>
      <path id="Path_178" data-name="Path 178" d="M367.114-243.3h-4.376a2.865,2.865,0,0,0-2.965,1.574l-8.41,17.4h5.946s.973-2.339,1.193-2.852l7.252.008c.169.664.689,2.844.689,2.844H371.7L367.114-243.3m-6.983,12.234c.469-1.093,2.256-5.3,2.256-5.3-.033.05.465-1.1.751-1.812l.383,1.637s1.084,4.53,1.311,5.48Z" fill="#004790"/>
      <path id="Path_179" data-name="Path 179" d="M321.645-243.3,316.1-230.361l-.59-2.631c-1.032-3.032-4.248-6.317-7.843-7.962l5.069,16.6,5.992-.007,8.915-18.944h-6" fill="#004790"/>
      <path id="Path_180" data-name="Path 180" d="M310.958-243.316h-9.131l-.072.394c7.1,1.572,11.8,5.368,13.756,9.93l-1.986-8.722c-.343-1.2-1.337-1.561-2.567-1.6" fill="#fc9200"/>
    </g>
    <rect id="Rectangle_170" data-name="Rectangle 170" width="70.19" height="45.916" rx="8.993" transform="translate(394.391 -256.979)" fill="#fff" stroke="#d6d5d5" stroke-miterlimit="10" stroke-width="1"/>
    <rect id="Rectangle_171" data-name="Rectangle 171" width="70.19" height="45.916" rx="8.993" transform="translate(230.051 -195.936)" fill="#fff" stroke="#d6d5d5" stroke-miterlimit="10" stroke-width="1"/>
    <rect id="Rectangle_172" data-name="Rectangle 172" width="70.19" height="45.916" rx="8.993" transform="translate(311.993 -195.936)" fill="#fff" stroke="#d6d5d5" stroke-miterlimit="10" stroke-width="1"/>
    <rect id="Rectangle_173" data-name="Rectangle 173" width="70.19" height="45.916" rx="8.993" transform="translate(393.934 -195.936)" fill="#fff" stroke="#d6d5d5" stroke-miterlimit="10" stroke-width="1"/>
    <g id="Group_358" data-name="Group 358">
      <path id="Path_181" data-name="Path 181" d="M422.168-234.021a17.392,17.392,0,0,1,17.393-17.393,17.39,17.39,0,0,1,17.391,17.393,17.392,17.392,0,0,1-17.391,17.393,17.394,17.394,0,0,1-17.393-17.393Z" fill="#f06e17"/>
      <path id="Path_182" data-name="Path 182" d="M427.911-246.968a14.958,14.958,0,0,0-1.527,1.573h3.1a10.038,10.038,0,0,1,1.449,2.007h-6.048s-.585.921-.976,1.7h8a11.962,11.962,0,0,1,.891,2.092h-9.727a14.873,14.873,0,0,0-.474,1.645l10.649-.014a18.071,18.071,0,0,1-.461,9.52l-9.673.012a12.739,12.739,0,0,0,.669,1.727h8.307c-.335.7-.823,1.575-1.1,2.017l-6.091,0a14.653,14.653,0,0,0,1.171,1.6l3.751,0a13.69,13.69,0,0,1-1.9,1.978h-.029l.038.013a17.324,17.324,0,0,1-11.631,4.463A17.394,17.394,0,0,1,398.9-234.021,17.392,17.392,0,0,1,416.3-251.414a17.328,17.328,0,0,1,11.615,4.446Z" fill="#e6001d"/>
      <path id="Path_183" data-name="Path 183" d="M419.331-236.492l-.28,1.566-1.526-.04s-.763.2-.763.522.562.723,1.4,1.085.884,1.362.8,2.045-.2,2.1-2.649,2.168a6.31,6.31,0,0,1-2.166-.241l.32-1.605s1.806.482,2.208.2.882-.763.12-1.083S414.8-232.717,414.8-234a2.327,2.327,0,0,1,1.325-2.369,6.172,6.172,0,0,1,3.21-.121Z" fill="#192966"/>
      <path id="Path_184" data-name="Path 184" d="M407.274-229.332H405.5l1.032-6.1-2.193,6.061h-1.225l-.3-6.3-1.072,6.34h-1.678l1.582-9.307h2.035l.712,5.36,2.368-5.36h2.09l-1.58,9.307Z" fill="#192966"/>
      <path id="Path_185" data-name="Path 185" d="M420.917-229.2a1.735,1.735,0,0,1-1.238-.372,1.64,1.64,0,0,1-.371-1.156,2.836,2.836,0,0,1,.028-.373c.013-.131.04-.281.054-.447l1.067-5.958h1.663l-.241,1.164h1.554l-.261,1.472h-1.554l-.427,2.537c-.026.168-.055.335-.082.523a2.926,2.926,0,0,0-.041.448.653.653,0,0,0,.151.521.688.688,0,0,0,.482.15,1.275,1.275,0,0,0,.33-.057,1.915,1.915,0,0,0,.343-.149h.138l-.263,1.492a3.042,3.042,0,0,1-.589.148,4,4,0,0,1-.743.057Z" fill="#192966"/>
      <path id="Path_186" data-name="Path 186" d="M432.853-234.383a.894.894,0,0,0-1.341.352l-.8,4.7h-1.663l1.2-7.011h1.663l-.035.566a1.809,1.809,0,0,1,1.563-.559,7.541,7.541,0,0,0-.586,1.953Z" fill="#192966"/>
      <path id="Path_187" data-name="Path 187" d="M436-229.144a2.614,2.614,0,0,1-2.144-.933,4.091,4.091,0,0,1-.756-2.667,8.76,8.76,0,0,1,.329-2.481,6.414,6.414,0,0,1,.922-1.922,4.265,4.265,0,0,1,1.375-1.229,3.336,3.336,0,0,1,1.678-.448,4.307,4.307,0,0,1,1.32.205c.2.069.582.251.582.251l-.386,2.21a2.88,2.88,0,0,0-.583-.578,1.856,1.856,0,0,0-1.015-.3,1.943,1.943,0,0,0-1.694,1.118,5.42,5.42,0,0,0-.672,2.853,2.788,2.788,0,0,0,.37,1.624,1.288,1.288,0,0,0,1.072.485,2.254,2.254,0,0,0,1.2-.337,5.144,5.144,0,0,0,.517-.375l-.386,2.111s-.2.1-.3.131c-.233.091-.44.148-.617.205a4.258,4.258,0,0,1-.813.074Z" fill="#192966"/>
      <path id="Path_188" data-name="Path 188" d="M411.369-229.573a2.084,2.084,0,0,1-.192.129,4.353,4.353,0,0,1-.483.226,2.559,2.559,0,0,1-.632.074,1.306,1.306,0,0,1-1.045-.485,1.954,1.954,0,0,1-.413-1.286,3.182,3.182,0,0,1,.289-1.419,2.2,2.2,0,0,1,.866-.913,3.73,3.73,0,0,1,1.265-.467l.345-.057a8.867,8.867,0,0,1,1.265-.148.551.551,0,0,1,.012-.131.752.752,0,0,0,.014-.186.683.683,0,0,0-.3-.635,1.948,1.948,0,0,0-.907-.167h-.082a2.959,2.959,0,0,0-.826.186,7.1,7.1,0,0,0-.744.318h-.149l.246-1.661a5.546,5.546,0,0,1,.893-.223,3.185,3.185,0,0,1,.58-.094,3.524,3.524,0,0,1,.632-.038,3.037,3.037,0,0,1,1.788.43,1.548,1.548,0,0,1,.564,1.343,2.71,2.71,0,0,1-.015.318c-.013.131-.027.242-.04.353l-.812,4.774h-1.651l.125-.745c-.1.093-.234.205-.372.336a2.729,2.729,0,0,0-.219.168Zm0-2.909a2.239,2.239,0,0,0-.454.148.959.959,0,0,0-.427.392,1.216,1.216,0,0,0-.153.671.591.591,0,0,0,.2.5.97.97,0,0,0,.577.15.724.724,0,0,0,.262-.055,2.181,2.181,0,0,0,.261-.1,3.718,3.718,0,0,0,.521-.392l.249-1.491c-.29.037-.578.074-.825.132a.775.775,0,0,0-.206.036Z" fill="#192966"/>
      <path id="Path_189" data-name="Path 189" d="M425.75-235.131a1,1,0,0,0-.592.336,2.538,2.538,0,0,0-.536,1.044h2.242c0-.075.013-.132.013-.206,0-.055.014-.129.014-.186a1.159,1.159,0,0,0-.234-.766.822.822,0,0,0-.645-.259,1.226,1.226,0,0,0-.262.037Zm0,4.4H426a2.208,2.208,0,0,0,1.03-.244,4.544,4.544,0,0,0,.84-.559h.193l-.318,1.81a3.985,3.985,0,0,1-1.016.428,4.124,4.124,0,0,1-.977.15H425.6a2.582,2.582,0,0,1-2.049-.8,3.1,3.1,0,0,1-.715-2.182,6.348,6.348,0,0,1,.233-1.755,4.552,4.552,0,0,1,.675-1.416,3.284,3.284,0,0,1,1.058-.933,3.5,3.5,0,0,1,.949-.318,4.036,4.036,0,0,1,.454-.017,2.255,2.255,0,0,1,1.746.635,2.66,2.66,0,0,1,.578,1.863,5.771,5.771,0,0,1-.056.84,8.149,8.149,0,0,1-.165.8h-3.85v.149a1.646,1.646,0,0,0,.385,1.137,1.365,1.365,0,0,0,.908.412Z" fill="#192966"/>
      <path id="Path_190" data-name="Path 190" d="M441.335-229.573a1.221,1.221,0,0,1-.207.129,3.317,3.317,0,0,1-.482.226,2.526,2.526,0,0,1-.619.074,1.329,1.329,0,0,1-1.058-.485,1.954,1.954,0,0,1-.4-1.286,3.168,3.168,0,0,1,.292-1.419,2.244,2.244,0,0,1,.851-.913,3.7,3.7,0,0,1,1.278-.467l.346-.057a8.6,8.6,0,0,1,1.25-.148c.014-.038.014-.076.029-.131,0-.056.012-.111.012-.186a.713.713,0,0,0-.3-.635,1.951,1.951,0,0,0-.909-.167h-.08a2.765,2.765,0,0,0-.827.186,6.907,6.907,0,0,0-.741.318h-.152l.234-1.661a5.409,5.409,0,0,1,.907-.223,3.133,3.133,0,0,1,.579-.094,3.442,3.442,0,0,1,.632-.038,3.04,3.04,0,0,1,1.788.43,1.581,1.581,0,0,1,.563,1.343,2.71,2.71,0,0,1-.015.318c-.014.131-.027.242-.04.353l-.812,4.774H441.8l.125-.745c-.11.093-.236.205-.386.336l-.205.168Zm0-2.909a2.8,2.8,0,0,0-.47.148,1.061,1.061,0,0,0-.426.392,1.362,1.362,0,0,0-.152.671.567.567,0,0,0,.208.5.925.925,0,0,0,.563.15.791.791,0,0,0,.277-.055,1.436,1.436,0,0,0,.245-.1,2.988,2.988,0,0,0,.523-.392l.261-1.491c-.3.037-.576.074-.839.132a.594.594,0,0,0-.19.036Z" fill="#192966"/>
      <path id="Path_191" data-name="Path 191" d="M448.351-234.383a.9.9,0,0,0-1.342.352l-.8,4.7h-1.662l1.194-7.011h1.664l-.036.566a1.809,1.809,0,0,1,1.563-.559,7.471,7.471,0,0,0-.585,1.953Z" fill="#192966"/>
      <path id="Path_192" data-name="Path 192" d="M451.618-234.852a1.243,1.243,0,0,0-.234.15,1.907,1.907,0,0,0-.549.633,3.679,3.679,0,0,0-.3.952,5.108,5.108,0,0,0-.125,1.1,1.534,1.534,0,0,0,.222.914.764.764,0,0,0,.662.3.725.725,0,0,0,.327-.075.574.574,0,0,0,.151-.075,2.638,2.638,0,0,0,.467-.318l.592-3.45a1.339,1.339,0,0,0-.357-.15.99.99,0,0,0-.37-.075,1.323,1.323,0,0,0-.483.094Zm0,5.149a2.679,2.679,0,0,1-.411.316,2.195,2.195,0,0,1-.4.186,1.856,1.856,0,0,1-.481.057,1.416,1.416,0,0,1-1.212-.654,3.485,3.485,0,0,1-.437-1.883,6.955,6.955,0,0,1,.23-1.884,5.7,5.7,0,0,1,.649-1.547,3.481,3.481,0,0,1,.962-1.046,2.11,2.11,0,0,1,1.1-.392h.055a2.2,2.2,0,0,1,.743.112,2.534,2.534,0,0,1,.647.374l.369-2.446H455.1l-1.525,9.178h-1.662l.125-.726c-.154.131-.289.243-.415.355Z" fill="#192966" fill-rule="evenodd"/>
      <path id="Path_193" data-name="Path 193" d="M419.667-236.741l-.282,1.564-1.525-.039s-.762.2-.762.521.561.723,1.4,1.084.883,1.364.8,2.046-.2,2.1-2.649,2.169a6.32,6.32,0,0,1-2.167-.241l.319-1.606s1.808.483,2.21.2.883-.762.119-1.083-2.007-.844-2.007-2.127a2.329,2.329,0,0,1,1.325-2.369,6.137,6.137,0,0,1,3.212-.119Z" fill="#fff"/>
      <path id="Path_194" data-name="Path 194" d="M407.607-229.581h-1.773l1.031-6.1-2.193,6.062h-1.225l-.294-6.306-1.073,6.342H400.4l1.582-9.307h2.035l.713,5.358,2.368-5.358h2.09l-1.582,9.307Z" fill="#fff"/>
      <path id="Path_195" data-name="Path 195" d="M421.251-229.451a1.732,1.732,0,0,1-1.238-.373,1.631,1.631,0,0,1-.371-1.156,3.268,3.268,0,0,1,.027-.374c.016-.129.041-.278.057-.447l1.065-5.956h1.665l-.243,1.162h1.554l-.261,1.473h-1.554l-.426,2.539c-.028.165-.055.334-.082.52a2.957,2.957,0,0,0-.041.448.662.662,0,0,0,.15.523.692.692,0,0,0,.481.15,1.354,1.354,0,0,0,.33-.058,1.873,1.873,0,0,0,.345-.149h.138l-.263,1.493a2.981,2.981,0,0,1-.59.148,4.269,4.269,0,0,1-.743.057Z" fill="#fff"/>
      <path id="Path_196" data-name="Path 196" d="M433.188-234.634a.894.894,0,0,0-1.34.352l-.8,4.7h-1.662l1.2-7.014h1.662l-.034.566a1.8,1.8,0,0,1,1.558-.557,7.61,7.61,0,0,0-.582,1.952Z" fill="#fff"/>
      <path id="Path_197" data-name="Path 197" d="M436.331-229.4a2.606,2.606,0,0,1-2.144-.933,4.087,4.087,0,0,1-.757-2.667,8.749,8.749,0,0,1,.329-2.481,6.51,6.51,0,0,1,.921-1.922,4.318,4.318,0,0,1,1.378-1.229,3.307,3.307,0,0,1,1.675-.448,4.319,4.319,0,0,1,1.321.206c.2.068.583.25.583.25l-.386,2.212a2.891,2.891,0,0,0-.582-.58,1.877,1.877,0,0,0-1.019-.3,1.941,1.941,0,0,0-1.691,1.12,5.428,5.428,0,0,0-.674,2.854,2.766,2.766,0,0,0,.372,1.622,1.287,1.287,0,0,0,1.073.485,2.3,2.3,0,0,0,1.2-.336,6.158,6.158,0,0,0,.517-.376l-.388,2.111s-.2.1-.295.131c-.233.093-.438.148-.617.2a4.287,4.287,0,0,1-.812.076Z" fill="#fff"/>
      <path id="Path_198" data-name="Path 198" d="M411.7-229.824a2.3,2.3,0,0,1-.192.131,4.04,4.04,0,0,1-.482.222,2.58,2.58,0,0,1-.632.076,1.3,1.3,0,0,1-1.044-.485,1.967,1.967,0,0,1-.413-1.286,3.154,3.154,0,0,1,.288-1.417,2.2,2.2,0,0,1,.868-.916,3.7,3.7,0,0,1,1.265-.465l.342-.057a9.021,9.021,0,0,1,1.266-.15.475.475,0,0,1,.014-.13.809.809,0,0,0,.013-.186.686.686,0,0,0-.3-.635,1.96,1.96,0,0,0-.907-.167H411.7a3.042,3.042,0,0,0-.825.186,7.291,7.291,0,0,0-.743.318h-.15l.247-1.66a5.406,5.406,0,0,1,.894-.223,3.047,3.047,0,0,1,.577-.1,3.641,3.641,0,0,1,.633-.037,3.041,3.041,0,0,1,1.788.429,1.543,1.543,0,0,1,.563,1.343,3.111,3.111,0,0,1-.013.318c-.015.131-.028.243-.043.354l-.809,4.775h-1.652l.124-.747c-.1.094-.233.206-.371.337a2.527,2.527,0,0,0-.22.167Zm0-2.909a2.155,2.155,0,0,0-.454.15.929.929,0,0,0-.425.39,1.208,1.208,0,0,0-.152.671.6.6,0,0,0,.192.5.993.993,0,0,0,.579.15.7.7,0,0,0,.26-.057,1.7,1.7,0,0,0,.262-.093,3.878,3.878,0,0,0,.522-.391l.247-1.492c-.288.037-.577.075-.823.131a.784.784,0,0,0-.208.037Z" fill="#fff"/>
      <path id="Path_199" data-name="Path 199" d="M426.083-235.382a1.013,1.013,0,0,0-.59.335,2.537,2.537,0,0,0-.537,1.045H427.2c0-.074.014-.131.014-.206,0-.054.014-.13.014-.184a1.168,1.168,0,0,0-.234-.768.826.826,0,0,0-.647-.259,1.191,1.191,0,0,0-.262.037Zm0,4.4h.248a2.231,2.231,0,0,0,1.033-.243,4.436,4.436,0,0,0,.837-.56h.192l-.315,1.809a3.9,3.9,0,0,1-1.018.43,4.108,4.108,0,0,1-.977.149h-.15a2.58,2.58,0,0,1-2.049-.8,3.1,3.1,0,0,1-.716-2.182,6.416,6.416,0,0,1,.234-1.754,4.618,4.618,0,0,1,.674-1.418,3.307,3.307,0,0,1,1.059-.932,3.54,3.54,0,0,1,.948-.317,4.054,4.054,0,0,1,.455-.017,2.256,2.256,0,0,1,1.746.632,2.666,2.666,0,0,1,.579,1.867,5.8,5.8,0,0,1-.055.84c-.042.259-.1.54-.166.8h-3.85v.149a1.654,1.654,0,0,0,.384,1.137,1.367,1.367,0,0,0,.907.412Z" fill="#fff"/>
      <path id="Path_200" data-name="Path 200" d="M441.668-229.824a1.284,1.284,0,0,1-.206.131,3.309,3.309,0,0,1-.48.222,2.572,2.572,0,0,1-.62.076,1.329,1.329,0,0,1-1.058-.485,1.955,1.955,0,0,1-.4-1.286,3.14,3.14,0,0,1,.29-1.417,2.244,2.244,0,0,1,.853-.916,3.686,3.686,0,0,1,1.277-.465c.111-.021.22-.038.344-.057a8.831,8.831,0,0,1,1.253-.15,1.27,1.27,0,0,0,.025-.13c0-.055.015-.112.015-.186a.71.71,0,0,0-.3-.635,1.956,1.956,0,0,0-.906-.167h-.083a2.81,2.81,0,0,0-.824.186,7,7,0,0,0-.743.318h-.15l.233-1.66a5.264,5.264,0,0,1,.907-.223,3.047,3.047,0,0,1,.577-.1,3.556,3.556,0,0,1,.633-.037,3.047,3.047,0,0,1,1.789.429,1.58,1.58,0,0,1,.563,1.343,3.111,3.111,0,0,1-.013.318c-.016.131-.029.243-.044.354l-.81,4.775h-1.652l.127-.747c-.112.094-.234.206-.385.337l-.208.167Zm0-2.909a2.643,2.643,0,0,0-.467.15,1,1,0,0,0-.425.39,1.319,1.319,0,0,0-.153.671.564.564,0,0,0,.207.5.938.938,0,0,0,.564.15.76.76,0,0,0,.274-.057,1.143,1.143,0,0,0,.247-.093,3.21,3.21,0,0,0,.523-.391l.261-1.492c-.3.037-.577.075-.84.131a.612.612,0,0,0-.191.037Z" fill="#fff"/>
      <path id="Path_201" data-name="Path 201" d="M448.686-234.634a.9.9,0,0,0-1.341.352l-.8,4.7h-1.664l1.2-7.014h1.662l-.034.566a1.8,1.8,0,0,1,1.561-.557,7.449,7.449,0,0,0-.584,1.952Z" fill="#fff"/>
      <path id="Path_202" data-name="Path 202" d="M451.953-235.1a1.2,1.2,0,0,0-.233.15,1.874,1.874,0,0,0-.55.635,3.506,3.506,0,0,0-.3.95,5.045,5.045,0,0,0-.125,1.1,1.557,1.557,0,0,0,.218.913.772.772,0,0,0,.662.3.714.714,0,0,0,.33-.076.561.561,0,0,0,.152-.074,2.807,2.807,0,0,0,.466-.318l.591-3.449a1.248,1.248,0,0,0-.356-.151.991.991,0,0,0-.373-.073,1.319,1.319,0,0,0-.48.092Zm0,5.149a2.947,2.947,0,0,1-.413.317,2.4,2.4,0,0,1-.4.186,1.908,1.908,0,0,1-.481.056,1.417,1.417,0,0,1-1.213-.653,3.492,3.492,0,0,1-.439-1.884,6.842,6.842,0,0,1,.234-1.884,5.682,5.682,0,0,1,.647-1.546,3.438,3.438,0,0,1,.96-1.045,2.116,2.116,0,0,1,1.1-.393h.055a2.188,2.188,0,0,1,.743.112,2.466,2.466,0,0,1,.646.373l.37-2.444h1.663l-1.524,9.178h-1.663l.122-.728c-.151.129-.289.243-.412.355Z" fill="#fff" fill-rule="evenodd"/>
    </g>
    <g id="Group_361" data-name="Group 361">
      <g id="Group_360" data-name="Group 360" clip-path="url(#clip-path)">
        <g id="Group_359" data-name="Group 359">
          <path id="Path_203" data-name="Path 203" d="M237.637-197.466H140.494v54.554h97.143v-18a1.472,1.472,0,0,0,.576-1.2,1.353,1.353,0,0,0-.576-1.2" fill="url(#radial-gradient)"/>
          <path id="Path_204" data-name="Path 204" d="M159.57-176.6l-1.131-2.533-1.124,2.533m27.17-1.008a1.658,1.658,0,0,1-.817.131H181.66v-1.412H183.7a1.828,1.828,0,0,1,.784.115.576.576,0,0,1,.347.562A.64.64,0,0,1,184.485-177.61ZM198.8-176.6l-1.143-2.533-1.138,2.533Zm-26.693,2.742h-1.694l-.007-4.976-2.4,4.976h-1.45l-2.4-4.981v4.981H160.8l-.635-1.417h-3.441l-.641,1.417h-1.8l2.959-6.354H159.7l2.811,6.016v-6.016h2.7l2.163,4.31,1.986-4.31h2.751v6.354Zm6.751,0h-5.52v-6.354h5.52v1.323H175v1.145h3.774v1.3H175v1.269h3.867Zm7.783-4.643a1.8,1.8,0,0,1-1.165,1.694,1.914,1.914,0,0,1,.818.535,1.712,1.712,0,0,1,.273,1.166v1.248h-1.666l-.007-.8a1.782,1.782,0,0,0-.26-1.238,1.721,1.721,0,0,0-1.205-.272h-1.773v2.311h-1.653v-6.354h3.8a4.206,4.206,0,0,1,2,.3A1.464,1.464,0,0,1,186.646-178.5Zm2.644,4.643H187.6v-6.354h1.686Zm19.56,0h-2.341l-3.133-4.769v4.769h-3.365l-.643-1.417h-3.432l-.624,1.417h-1.934a3.678,3.678,0,0,1-2.4-.7,3.046,3.046,0,0,1-.882-2.425,3.211,3.211,0,0,1,.89-2.485,3.546,3.546,0,0,1,2.51-.741h1.6v1.362h-1.567a1.679,1.679,0,0,0-1.271.376,1.987,1.987,0,0,0-.475,1.439,2.079,2.079,0,0,0,.454,1.492,1.688,1.688,0,0,0,1.152.328h.742l2.329-5h2.476l2.8,6.01v-6.01h2.516l2.9,4.425v-4.425h1.693v6.354Zm-54.579,1.248h2.823l.637-1.411h1.425l.635,1.411h5.555v-1.079l.5,1.084h2.883l.5-1.1v1.1h13.805l-.006-2.317h.267c.187.006.242.022.242.306v2.011h7.14v-.539a6.075,6.075,0,0,0,2.65.539h3l.643-1.411h1.425l.628,1.411h5.789v-1.341l.876,1.341h4.639v-8.862h-4.591v1.047l-.643-1.047h-4.71v1.047l-.59-1.047h-6.363a6.137,6.137,0,0,0-2.757.518v-.518h-4.391v.518a2.885,2.885,0,0,0-1.866-.518H168.37l-1.076,2.289-1.105-2.289h-5.053v1.047l-.555-1.047h-4.309l-2,4.214v4.648Z" fill="#fff"/>
          <path id="Path_205" data-name="Path 205" d="M213.059-167.925h-3.011a1.226,1.226,0,0,0-.669.115.482.482,0,0,0-.241.457.483.483,0,0,0,.361.473,2.033,2.033,0,0,0,.637.072l.9.022a2.772,2.772,0,0,1,1.875.512.836.836,0,0,1,.153.157m0,2.382a2.687,2.687,0,0,1-2.242.813h-3.191v-1.363H210.8a1,1,0,0,0,.669-.157.54.54,0,0,0,.195-.415.5.5,0,0,0-.2-.42.89.89,0,0,0-.582-.141c-1.551-.049-3.487.044-3.487-1.967,0-.922.637-1.892,2.371-1.892h3.291v-1.265H210a3.669,3.669,0,0,0-2.068.519v-.519H203.41a3.334,3.334,0,0,0-1.974.519v-.519h-8.077v.519a4.606,4.606,0,0,0-2.228-.519H185.8v.519a4.031,4.031,0,0,0-2.329-.519h-5.963l-1.364,1.357-1.278-1.357h-8.907v8.868H174.7l1.406-1.379,1.325,1.379,5.387,0v-2.087h.529a6.061,6.061,0,0,0,2.3-.311v2.393h4.443v-2.311h.214c.274,0,.3.01.3.261v2.05h13.5a4.1,4.1,0,0,0,2.249-.568v.568h4.281a6.177,6.177,0,0,0,2.423-.409v-1.652Zm-6.591-2.539a1.684,1.684,0,0,1,.494,1.346c0,1.368-.929,2.006-2.6,2.006h-3.219v-1.363h3.206a1.038,1.038,0,0,0,.675-.157.547.547,0,0,0,.195-.415.526.526,0,0,0-.2-.42.923.923,0,0,0-.588-.141c-1.545-.049-3.481.044-3.481-1.967,0-.922.63-1.892,2.363-1.892h3.312v1.352H203.6a1.207,1.207,0,0,0-.662.115.476.476,0,0,0-.248.457.493.493,0,0,0,.362.474,2.047,2.047,0,0,0,.643.072l.889.022A2.827,2.827,0,0,1,206.468-166.274Zm-14.91-.393a1.7,1.7,0,0,1-.816.131h-2.007v-1.427h2.034a1.757,1.757,0,0,1,.789.115.6.6,0,0,1,.342.571A.672.672,0,0,1,191.558-166.667Zm1,.791a1.79,1.79,0,0,1,.809.534,1.725,1.725,0,0,1,.274,1.16v1.26H191.98v-.795c0-.383.04-.949-.267-1.244a1.7,1.7,0,0,0-1.212-.282h-1.766v2.321h-1.66v-6.356h3.815a4.413,4.413,0,0,1,1.988.3,1.471,1.471,0,0,1,.849,1.412A1.788,1.788,0,0,1,192.556-165.876Zm2.087-3.4h5.515v1.315h-3.869v1.155h3.775v1.3h-3.775v1.264l3.869.006v1.319h-5.515Zm-11.148,2.933H181.36v-1.618h2.154c.6,0,1.011.223,1.011.779S184.13-166.345,183.495-166.345Zm-3.781,2.845-2.537-2.589,2.537-2.506Zm-6.552-.747H169.1v-1.264h3.627v-1.3H169.1v-1.155h4.142l1.808,1.852Zm13.137-2.937c0,1.766-1.433,2.13-2.878,2.13H181.36v2.132h-3.212l-2.035-2.1-2.114,2.1h-6.545v-6.356H174.1l2.033,2.084,2.1-2.084h5.28C184.826-169.278,186.3-168.944,186.3-167.184Z" fill="#fff"/>
        </g>
      </g>
    </g>
    <g id="Group_364" data-name="Group 364">
      <g id="Group_362" data-name="Group 362">
        <path id="Path_206" data-name="Path 206" d="M251.41-187.374a4.877,4.877,0,0,0-4.706,4.707c0,1.369,0,6.789,0,12.177a13.262,13.262,0,0,0,3.49,1.04c1.91.135,3.094-.5,3.277-2.087l-.009-5.911h4.224v5.776c-.222,3.308-3.124,3.982-7.542,3.759a20.546,20.546,0,0,1-3.441-.546c0,5.392,0,10.221,0,10.221h7.351a4.872,4.872,0,0,0,4.618-4.725v-24.411Z" fill="url(#linear-gradient)"/>
        <path id="Path_207" data-name="Path 207" d="M246.692-170.5v2.035l.009,0v-2.031Z" fill="url(#linear-gradient-2)"/>
      </g>
      <g id="Group_363" data-name="Group 363">
        <path id="Path_208" data-name="Path 208" d="M264.9-187.374a4.877,4.877,0,0,0-4.706,4.707c0,.867,0,3.361,0,6.442,1.475-1.153,3.854-1.718,6.881-1.485a19.321,19.321,0,0,1,3.69.579v2.044a10.821,10.821,0,0,0-3.536-1.041c-2.855-.206-4.353,1.132-4.353,3.294,0,1.946,1.157,3.611,4.34,3.389a12.784,12.784,0,0,0,3.54-1.038l.009,1.984a18.487,18.487,0,0,1-4.5.65c-2.821.023-4.811-.576-6.069-1.548l0,11.159h7.351a4.872,4.872,0,0,0,4.618-4.725v-24.411Z" fill="url(#linear-gradient-3)"/>
      </g>
      <path id="Path_209" data-name="Path 209" d="M278.849-172.214c-.8.008-2.561-.008-2.879,0l-.005,2.574,2.879.009a1.306,1.306,0,0,0,1.264-1.314A1.264,1.264,0,0,0,278.849-172.214Z" fill="url(#linear-gradient-4)"/>
      <path id="Path_210" data-name="Path 210" d="M279.758-174.8a1.165,1.165,0,0,0-1.145-1.223c-.83.019-2.325-.021-2.652.009l-.01,2.343,2.72.019A1.162,1.162,0,0,0,279.758-174.8Z" fill="url(#linear-gradient-5)"/>
      <path id="Path_211" data-name="Path 211" d="M278.323-187.374a4.877,4.877,0,0,0-4.706,4.707c0,.745,0,2.692,0,5.179H280.6c1.391,0,3.029.6,3.029,2.285,0,.907-.483,1.934-2.223,2.267v.039c1.016,0,2.777.594,2.777,2.388,0,1.852-1.9,2.366-2.922,2.366l-7.651.008c0,5.26,0,9.9,0,9.9h7.352a4.872,4.872,0,0,0,4.617-4.725v-24.411Z" fill="url(#linear-gradient-6)"/>
    </g>
    <path id="Path_212" data-name="Path 212" d="M345.215-171.38A13.693,13.693,0,0,1,331.3-157.727a13.546,13.546,0,0,1-13.74-13.653,13.766,13.766,0,0,1,13.74-13.913A13.913,13.913,0,0,1,345.215-171.38Z" fill="#005fac"/>
    <path id="Path_213" data-name="Path 213" d="M363.385-178.1h-3.779l-4.169,11.032h3.518l.521-1.911,3.909.13.565,1.781h3.561Zm-3.171,6.906,1.26-4,1.26,4Z" fill="#0c2b69"/>
    <path id="Path_214" data-name="Path 214" d="M366.252-178.1l4.257,6.385v4.647h3.431v-4.778L378.2-178.1h-3.648l-2.215,3.822L369.9-178.1Z" fill="#0c2b69"/>
    <path id="Path_215" data-name="Path 215" d="M356.132-174.8c0-3.171-3.3-3.3-3.3-3.3h-6.168v11.032h3.431v-4.083l3.084-.043A3.488,3.488,0,0,0,356.132-174.8Zm-4.626,1.52h-1.412v-2.584H351.7a1.264,1.264,0,0,1,1.173,1.292C352.874-173.456,351.506-173.282,351.506-173.282Z" fill="#0c2b69"/>
    <path id="Path_216" data-name="Path 216" d="M322.717-178.258c-3.58.1-5.255,2.732-5.255,5.848s1.777,5.643,5.379,5.643c3.313,0,5.145-2.526,5.145-5.643S326.154-178.352,322.717-178.258Zm.144,10.145c-2.534,0-3.967-1.955-3.967-4.366s1.362-4.449,3.88-4.524c2.418-.072,3.706,2.114,3.706,4.524S325.192-168.113,322.861-168.113Z" fill="#fff"/>
    <path id="Path_217" data-name="Path 217" d="M329.724-167.071h1.411v-5.1a1.957,1.957,0,0,1,2.128-1.868s1.629-.022,1.629,1.455v5.516h1.434v-5.777s.13-2.41-2.715-2.41a3.279,3.279,0,0,0-2.628,1.281v-1.086h-1.259Z" fill="#fff"/>
    <path id="Path_218" data-name="Path 218" d="M341.9-175.258a3.7,3.7,0,0,0-4.011,4.093s-.376,4.007,3.591,4.311a3.5,3.5,0,0,0,3.822-2.591h-1.52a2.279,2.279,0,0,1-2.273,1.462s-2.071-.072-2.2-2.707h6.052S345.592-175.258,341.9-175.258Zm-2.52,3.409a2.265,2.265,0,0,1,2.317-2.3c2.056,0,2.186,2.3,2.186,2.3Z" fill="#fff"/>
    <path id="Path_219" data-name="Path 219" d="M417.947-164.368h-3.9c1.366-1.441.824-3.159.877-4.77.064-1.966-.02-3.937.032-5.9a3.351,3.351,0,0,0-.675-2.316,6.674,6.674,0,0,1-.43-.727c1.347,0,2.584-.034,3.816.027.255.013.536.347.729.592q2.958,3.752,5.89,7.524c.1.124.208.239.47.538v-1.974c0-1.026,0-2.052,0-3.078-.006-1.228.227-2.51-.955-3.581h3.737c.007.016.052.092.039.1-.942.871-.884,2-.874,3.147.027,3.271.009,6.543.009,9.814v.964a5.713,5.713,0,0,1-4.286-2.265c-1.769-2.305-3.569-4.586-5.461-7.012-.032.378-.067.605-.068.832,0,1.746.049,3.5-.021,5.239A3.21,3.21,0,0,0,417.947-164.368Z" fill="#e00519"/>
    <path id="Path_220" data-name="Path 220" d="M451.192-164.551h-5.051c.8-1.368.056-2.506-.377-3.671a.823.823,0,0,0-.608-.426c-1.245-.04-2.493-.032-3.739-.009-.188,0-.507.136-.54.266-.316,1.241-1.3,2.388-.526,3.834H437.4c1.616-3.7,2.761-7.606,4.089-11.443a2.362,2.362,0,0,0-.651-1.874c.128-.013,3.176.024,4.112-.046.7-.052.977.257,1.193.848,1.262,3.446,2.529,6.89,3.845,10.315A18.1,18.1,0,0,0,451.192-164.551Zm-9.679-5.75h3.5l-1.707-4.48-.238.025Z" fill="#004a9b"/>
    <path id="Path_221" data-name="Path 221" d="M399.929-178.089c1.2,0,2.331.029,3.465-.013a.757.757,0,0,1,.871.617c.984,2.873,1.995,5.737,3,8.6.106.3.243.6.427,1.042.836-2.308,1.629-4.454,2.389-6.612.411-1.169,1.193-2.334.018-3.607h3.147c-.565,1.642-1.109,3.23-1.658,4.816-.985,2.843-1.995,5.678-2.942,8.534-.193.583-.453.657-.959.5a5.324,5.324,0,0,1-3.782-3.4C402.648-171.078,401.289-174.518,399.929-178.089Z" fill="#e00519"/>
    <path id="Path_222" data-name="Path 222" d="M434.375-170.4a3.956,3.956,0,0,0,.912-4.5c-.419-1.051-1-1.351-2.24-1.184-.013.3-.039.626-.04.948,0,2.659,0,5.318,0,7.978,0,.906-.127,1.836.847,2.59h-4.464c.08-.991.212-1.932.221-2.873q.043-4.364,0-8.726a9.656,9.656,0,0,0-.332-1.7,2.847,2.847,0,0,1,.383-.035c1.966,0,3.933-.01,5.9.007a3.6,3.6,0,0,1,3.466,3.426C439.264-171.575,436.882-169.972,434.375-170.4Z" fill="#004a9b"/>
    <path id="Path_223" data-name="Path 223" d="M449.2-177.9c1.387,0,2.679-.026,3.967.025.227.008.5.3.65.526.825,1.277,1.617,2.577,2.423,3.867.143.229.3.449.548.82.345-.466.624-.825.882-1.2.361-.524.69-1.071,1.063-1.586a2,2,0,0,0,.349-2.412h3.784c-.667.957-1.287,1.856-1.917,2.748-.911,1.288-1.854,2.554-2.727,3.867a2.67,2.67,0,0,0-.4,1.3,31.988,31.988,0,0,0,0,3.406,13.1,13.1,0,0,0,.409,1.957H453.8c.852-1.9.277-3.93.39-5.9.018-.3-.275-.646-.476-.936C452.244-173.55,450.755-175.673,449.2-177.9Z" fill="#004a9b"/>
    <text id="Nhận_hàng_Trả_tiền_COD_" data-name="Nhận hàng
Trả tiền (COD)" transform="translate(190.129 -236.234)" fill="#fff" font-size="12.667" font-family="MyriadPro-BoldSemiCn, Myriad Pro" font-weight="700"><tspan x="0" y="0">Nhận hàng</tspan><tspan x="0" y="15.201">Trả tiền (COD)</tspan></text>
    <line id="Line_14" data-name="Line 14" x1="1.201" y2="0.403" transform="translate(168.851 -238.154)" fill="#004790"/>
    <g id="Group_365" data-name="Group 365">
      <path id="Path_224" data-name="Path 224" d="M182.96-229.232h-2.308c-.783,0-1.568-.028-2.35,0a11.475,11.475,0,0,0-1.664.2,9.854,9.854,0,0,1-3.2-.063c-.752-.1-1.492-.274-2.3-.428v.4q0,4.881,0,9.762a3.087,3.087,0,0,1-3.448,3.031,3.032,3.032,0,0,1-3.047-2.8q-.01-5.384,0-10.766,0-3.816,0-7.632a2.7,2.7,0,0,1,2.564-2.515,2.867,2.867,0,0,1,3.169,2.238,8.822,8.822,0,0,0,.27,1.5,2.706,2.706,0,0,0,1.438,1.574v-5.213H182.96Zm-16.735-3.578a2.5,2.5,0,0,0-.036.254q0,6.764,0,13.526a1.664,1.664,0,0,0,1.628,1.488,1.759,1.759,0,0,0,1.877-1.341c.016-.3-.062-.608-.063-.913,0-3.318,0-6.635-.01-9.953a.539.539,0,0,0-.209-.431A8.323,8.323,0,0,1,166.225-232.81Zm8.711,2.617.024-.089c.23,0,.46.008.69,0a1.379,1.379,0,0,0,1.438-1.257,1.345,1.345,0,0,0-1.415-1.178c-.505-.027-1.015-.034-1.511-.1a8.039,8.039,0,0,1-3.191-.942,4.329,4.329,0,0,1-2.069-3.718,1.4,1.4,0,0,0-2.117-1.022,1.487,1.487,0,0,0-.781,1.526,6.066,6.066,0,0,0,1.615,3.769,7.315,7.315,0,0,0,3.909,2.4C172.647-230.547,173.8-230.394,174.936-230.193Z" fill="#fff"/>
      <path id="Path_225" data-name="Path 225" d="M173.117-245.431a11.982,11.982,0,0,1-.281,1.619A4.882,4.882,0,0,1,167.6-240.7a4.562,4.562,0,0,1-4.354-4.2c-.023-1.5-.008-3-.009-4.5,0-.078.014-.156.023-.259h9.769v2.918h3.007v1.309Zm-8.389.016a2.869,2.869,0,0,0,1.624,2.952,3.5,3.5,0,0,0,3.672-.031,2.829,2.829,0,0,0,1.51-2.921Z" fill="#fff"/>
    </g>
  </g>
</svg>
