<svg xmlns="http://www.w3.org/2000/svg" xmlns:xlink="http://www.w3.org/1999/xlink" width="77.656" height="77.656" viewBox="0 0 77.656 77.656">
  <defs>
    <linearGradient id="linear-gradient" x1="0.5" x2="0.5" y2="1" gradientUnits="objectBoundingBox">
      <stop offset="0.06" stop-color="#09adf9"/>
      <stop offset="0.875" stop-color="#1078f6"/>
    </linearGradient>
  </defs>
  <g id="messenger-cho-huy" transform="translate(0 -0.8)">
    <circle id="Ellipse_22" data-name="Ellipse 22" cx="38.828" cy="38.828" r="38.828" transform="translate(0 0.8)" fill="#fff"/>
    <path id="Path_263" data-name="Path 263" d="M80.149,52.176A28.2,28.2,0,0,0,51.4,79.728a27.044,27.044,0,0,0,9.589,20.512v8.236a1.189,1.189,0,0,0,1.2,1.2,1.167,1.167,0,0,0,.628-.176L69.5,105.32a29.952,29.952,0,0,0,10.648,1.961A28.2,28.2,0,0,0,108.9,79.728,28.2,28.2,0,0,0,80.149,52.176ZM98.974,74.59,84.6,88.965a1.186,1.186,0,0,1-1.628.059l-7.766-6.648L62.754,89.161a1.188,1.188,0,0,1-1.412-1.883L75.717,72.9a1.186,1.186,0,0,1,1.628-.059l7.746,6.648,12.452-6.785a1.188,1.188,0,0,1,1.53.333A1.17,1.17,0,0,1,98.974,74.59Z" transform="translate(-41.32 -41.296)" fill="url(#linear-gradient)"/>
  </g>
</svg>
